<?xml version="1.0" encoding="UTF-8"?>
<svg width="28px" height="29px" viewBox="0 0 28 29" version="1.1" xmlns="http://www.w3.org/2000/svg"
    xmlns:xlink="http://www.w3.org/1999/xlink">
    <!-- Generator: Sketch 64 (93537) - https://sketch.com -->
    <title>pokemonOval 566</title>
    <desc>Created with Sketch.</desc>
    <g id="Main-App" stroke="none" stroke-width="1" fill="none" fill-rule="evenodd">
        <g id="Pokemons" transform="translate(-49.000000, -733.000000)" fill="#b1b1b1">
            <g id="iPhone-X/Bars/Tab-Bar/4-Items" transform="translate(39.000000, 733.000000)">
                <g id="Item-1">
                    <g id="Active-Icon" transform="translate(9.000000, 0.000000)">
                        <path
                            d="M8.50732281,24.9601241 C9.07045294,25.91147 10.3697571,25.7021415 10.3497254,25.91147 C10.2802755,26.6372143 10.2557601,26.1885784 10.3497254,26.6785143 C10.4832309,27.3746126 11.0345901,27.7283062 11.2303135,27.7283062 C11.3872848,27.7283062 11.7148544,27.4568221 11.8118797,26.9718379 C11.843748,26.8125432 11.7782829,26.5018582 11.8118797,26.3093219 C11.9019691,25.7930384 11.9156392,25.6256702 12.7066473,25.3799399 C13.0912755,25.2604534 13.5209713,25.0326474 14.4990317,24.9096299 C14.9057221,24.8584776 15.3676704,25.230458 15.3676704,25.230458 C15.3676704,25.230458 16.8663129,25.8578164 17.5230141,25.9114698 C17.8427958,25.9375965 18.9881791,25.8294875 18.9881791,25.8294875 C18.9881791,25.8294875 19.0191243,26.9762619 19.2354435,27.3581982 C19.6117695,28.0226447 20.262547,28.3505501 20.262547,28.3505501 C20.262547,28.3505501 20.6233572,27.6784864 20.6437981,27.1759988 C20.6533805,26.9404411 20.3191144,26.3772393 20.262547,25.9991066 C20.1900274,25.5143395 20.3894706,25.230458 20.3894706,25.230458 C20.3894706,25.230458 20.737268,24.4277219 20.9561886,24.0371517 C21.3327459,23.3653465 21.4226537,23.0181511 21.3970097,22.3614324 C21.3713657,21.7047137 20.3218965,21.1302026 20.8373882,20.9947832 C22.3007406,20.6103611 23.1046341,20.0445987 23.1046341,20.0445987 L21.8610849,17.9604615 L23.7073848,16.1573032 L23.1046341,13.0320925 L29,9.43927595 L27.5421822,3.26838125 C27.5421822,3.26838125 24.8819272,5.42146921 23.6086491,6.66876566 C22.2430014,8.00654684 19.625405,11.0236141 19.625405,11.0236141 L21.5587582,15.4022605 L19.2354435,17.3429668 C19.2354435,17.3429668 20.8375406,19.479835 21.2469263,19.386822 C21.5981013,19.3070346 20.2267706,19.6521265 20.1576365,19.6521265 C20.1567302,19.6521265 15.6681888,13.3400134 15.6681888,13.3400134 C15.6681888,13.3400134 14.42282,9.09715373 14.5391917,8.81949544 C14.7980284,8.20192098 14.8761881,8.81176783 15.6681888,8.64398276 C16.7414834,8.41660566 18.0954204,7.71246836 18.8161237,7.22922362 C20.0686451,6.38938513 22.9124876,5.06048146 21.8610849,4.45575414 C21.4596686,4.22487457 20.7710509,4.37034737 20.1576365,4.38472398 C19.1643758,4.40800305 18.0711602,4.48800489 16.4946486,5.06055281 C14.2284582,5.8835741 12.5026351,7.22922362 12.5026351,7.22922362 C12.5026351,7.22922362 11.4038042,6.94253654 9.78403531,6.58133722 C8.1642664,6.22013789 7.02844756,7.54692428 6.8167356,6.58133715 C6.76353873,6.33871402 6.96468604,6.15493341 7.05867118,5.86083263 C7.26732565,5.20790557 7.54232643,4.45575414 7.54232643,4.45575414 C7.54232643,4.45575414 7.79934151,3.28708331 7.85604853,2.13331015 C7.90297021,1.1786314 7.77176273,0.229867818 7.6105623,9.66290431e-05 C7.60344276,-0.0100513855 6.82577377,0.780520218 6.2969333,1.70636431 C5.81502761,2.5500394 5.57729422,3.53622428 5.57729422,3.53622428 C5.57729422,3.53622428 5.23751568,4.16504206 5.03040022,5.78458843 C4.95184845,6.39882659 5.05196472,7.31551279 4.96339063,8.16038703 C4.9013674,8.75200282 4.66834842,8.67342469 4.46166186,9.04625873 C3.9738682,9.9261712 3.81756369,11.307177 3.81756369,11.307177 C3.81756369,11.307177 3.00571269,12.0824463 3.40214382,13.4562452 C3.79857496,14.830044 5.28000054,15.575229 5.03040005,15.5101598 C4.64083107,15.4086017 3.61192889,15.6694206 2.92661773,16.0378034 C2.40848921,16.3163186 2.20583871,16.7313163 1.9472642,16.6712199 C1.26360998,16.5123291 1.00707616,17.0006612 1.00707616,17.0006612 C1.00707616,17.0006612 1.82019507,16.935252 1.84359943,17.2083579 C1.86700379,17.4814638 1.08932818,17.8172802 1.08932818,17.888127 C1.08932818,17.9589738 1.8582749,17.6310054 1.9151228,18.1147442 C1.9719707,18.5984831 1.60955228,18.7847568 1.08932818,18.8007206 C0.384671206,18.8223439 3.89543486,19.0919476 4.70738835,19.2145538 C5.68584344,19.3623019 7.35694676,19.9840648 7.35694676,19.9840648 C7.35694676,19.9840648 7.97838179,20.4106874 7.97838179,20.9947838 C7.9783818,21.8861463 7.85604845,23.1117786 7.85604845,23.7190094 C7.85604845,23.9501644 7.94419267,24.0087782 8.50732281,24.9601241 Z"
                            id="Oval-566"></path>
                    </g>
                </g>
            </g>
        </g>
    </g>
</svg>